SMILE_BIGGRIN;Gran sonrisa
SMILE_SMILE;Sonrisa
SMILE_SAD;Triste
SMILE_EEK;Sorprendido
SMILE_COOL;Fresco
SMILE_KISS;Beso
SMILE_REDFACE;Avergonzado
SMILE_CRY;Llorando
SMILE_EVIL;Enojado
SMILE_WINK;Guiсo
SMILE_EXCLAIM;Exclamaciуn
SMILE_QUESTION;Pregunta
SMILE_IDEA;Idea
SMILE_NEUTRAL;Escйptico
SMILE_CONFUSE;Confundido
SMILE_LIKE;Like
SMILE_FACEPALM;Facepalm
