SMILE_BIGGRIN;Grande sorriso
SMILE_SMILE;Sorriso
SMILE_SAD;Triste
SMILE_EEK;Surpreso
SMILE_COOL;Legal
SMILE_KISS;Beijo
SMILE_REDFACE;Envergonhado
SMILE_CRY;Chorando
SMILE_EVIL;Bravo
SMILE_WINK;Piscadela
SMILE_EXCLAIM;Exclamaзгo
SMILE_QUESTION;Pergunta
SMILE_IDEA;Ideia
SMILE_NEUTRAL;Cйtico
SMILE_CONFUSE;Confuso
SMILE_LIKE;Curtir
SMILE_FACEPALM;Mгo no rosto
